/* XPM */
static const char * orbits_xpm[] = {
"16 16 5 1",
" 	c None",
".	c #777777",
"+	c #FFFF00",
"#	c #FF0000",
"$	c #00FF04",
"                ",
"                ",
"     .....      ",
"   ...   ...    ",
"  ..       .    ",
"  .   ++   ..   ",
"  .   ++    .   ",
"  ##       ..   ",
"  ##..    ..    ",
"     ......     ",
"                ",
".               ",
"...            .",
"  .....     $$..",
"      ......$$  ",
"                "};
