/* XPM */
static const char * red_blue_xpm[] = {
"15 11 12 1",
" 	c None",
".	c #FFFFFF",
"+	c #FF9797",
"@	c #FF0000",
"#	c #DFEEFD",
"$	c #ABB6C2",
"%	c #99C2FF",
"&	c #828B94",
"*	c #51565C",
"=	c #2D3033",
"-	c #0066FF",
";	c #000000",
"   &&&   &&&   ",
"  *#&=   =&#*  ",
" *#&=     =&#* ",
"*#&=       =&#*",
"*=====* *=====*",
";######=######;",
";--%%--$@@++@@;",
";-%%---$@++@@@;",
";#%---#;#+@@@#;",
"*;####; ;####;*",
"  ;;;;   ;;;;  "};
