/* XPM */
static const char * stop_xpm[] = {
"15 15 3 1",
" 	c None",
"+	c #8B0000",
"@	c #FFFFFF",
"    +++++++    ",
"   +++++++++   ",
"  +++++++++++  ",
" +++++++++++++ ",
"+++++++++++++++",
"+@@@@@@@@@+@@@+",
"+@+++@+@+@+@+@+",
"+@@@+@+@+@+@+@+",
"+++@+@+@+@+@@@+",
"+@@@+@+@@@+@+++",
"+++++++++++++++",
" +++++++++++++ ",
"  +++++++++++  ",
"   +++++++++   ",
"    +++++++    "};
